BES Dataset Analysis
…
4.Exploratory Data Analysis

4.1.Total Fund Values for Each Firm Yearly

bes_data_monthly<- bes_data %>% filter(tarih %in% lastday) %>% mutate (year = format(tarih,"%Y"),month=format(tarih,"%B")) 
slct_1<-bes_data_monthly %>% filter (month == "July")
slct_1

## # A tibble: 54 x 17
##    sirket_adi katilimci_sayisi katilimci_fon_TL devlet_katkisi_~
##    <chr>                 <dbl>            <dbl>            <dbl>
##  1 Aegon Eme~            37671       132128516.        15559754.
##  2 Allianz H~            94630      2801049763.       385315268.
##  3 Allianz Y~           728934     12158903088.      1435419831.
##  4 Anadolu H~          1091010     16312824287.      2768140863.
##  5 Avivasa E~           787046     16801925214.      2467365796.
##  6 Axa Hayat~            33794       426214299.        86715369.
##  7 Bereket E~            93913       360296123.        70720767.
##  8 BNP Parib~           181937      2260767911.       349915170.
##  9 Cigna Fin~            83601       707565760.       139122983.
## 10 Fiba Emek~            91108      1614645975.       210616191.
## # ... with 44 more rows, and 13 more variables: katki_payi_TL <dbl>,
## #   tarih <date>, ss_emekli_sayisi <dbl>, ss_bireysel_sozlesme <dbl>,
## #   ss_grup_bireysel_sozlesme <dbl>, ss_isveren_grup_sertifika <dbl>,
## #   ss_toplam <dbl>, yy_bireysel_TL <dbl>, yy_grup_bireysel_TL <dbl>,
## #   yy_isveren_grup_TL <dbl>, yy_toplam_TL <dbl>, year <chr>, month <chr>
…
4.2.Ratio of Number of Retired Participants to Total Number of Participants by Each Firm

bes_katilimci <- bes_data %>% filter(tarih %in% lastday) %>% group_by(sirket_adi, tarih) %>% summarise(emekli_toplam = sum(ss_emekli_sayisi), sozlesme_toplam = sum(ss_toplam), emekli_oran = emekli_toplam / sozlesme_toplam)

bes_katilimci

## # A tibble: 558 x 5
## # Groups:   sirket_adi [21]
##    sirket_adi          tarih      emekli_toplam sozlesme_toplam emekli_oran
##    <chr>               <date>             <dbl>           <dbl>       <dbl>
##  1 Aegon Emeklilik ve~ 2017-01-31           277           48889     0.00567
##  2 Aegon Emeklilik ve~ 2017-02-28           288           48633     0.00592
##  3 Aegon Emeklilik ve~ 2017-03-31           303           48359     0.00627
##  4 Aegon Emeklilik ve~ 2017-04-30           313           48246     0.00649
##  5 Aegon Emeklilik ve~ 2017-05-31           329           47992     0.00686
##  6 Aegon Emeklilik ve~ 2017-06-30           338           47792     0.00707
##  7 Aegon Emeklilik ve~ 2017-07-31           354           47644     0.00743
##  8 Aegon Emeklilik ve~ 2017-08-31           367           47503     0.00773
##  9 Aegon Emeklilik ve~ 2017-09-30           382           47404     0.00806
## 10 Aegon Emeklilik ve~ 2017-10-31           398           47246     0.00842
## # ... with 548 more rows
…
